課税優遇制度がファミリー企業と非ファミリー企業の賃上げに与える影響
…
財務データとファミリービジネスデータを連結。

数値の列を数値型へ変換。

「賃上げ・生産性向上のための税制」適用開始より前（2015/4～2018/3）と以後（2018/4～2020/3）を分ける年度ダミー変数の列を作成。

産業の種類を表す変数を因子型にしたうえで回帰分析で使用。因子型の変数はRの回帰分析においては複数のダミー変数とみなされる。なおこの「産業ダミー」は、分析の際には数を1つ削除した（ダミー変数同士を線形独立にするため）。

を行った。以下は使用するデータセットの一部である(財務データの単位は、指標等を除き百万円)。

多分、みなさんならやってみたらわかります。

生データでは使い物にならないということが分かればOKです。

# A tibble: 17,968 × 15
   Name     Code   Year LaborCost_by_person Year_dummy FB_dummy FB_type      ROA
   <chr>    <chr> <dbl>               <dbl>      <dbl>    <dbl> <chr>      <dbl>
 1 日東製網 3524   2015               1.36           0        1 A        0.0391 
 2 神島化…  4026   2015               1.13           0        0 0        0.0381 
 3 伊藤園   2593   2015               5.14           0        1 A        0.0447 
 4 アイン…  9627   2015               1.15           0        1 A        0.114  
 5 サンオ…  7623   2015               6.74           0        1 A       -0.0279 
 6 ロック…  2910   2015               6.76           0        1 A        0.0698 
 7 共和工…  5971   2015               0.741          0        1 A        0.0494 
 8 ヤガミ   7488   2015               5.09           0        1 A        0.0894 
 9 ナ・デ…  7435   2015               3.28           0        1 A        0.110  
10 マツモト 7901   2015               1.26           0        1 A        0.00238
# ℹ 17,958 more rows
# ℹ 7 more variables: TotalAssets <dbl>, lagged_TotalAssets <dbl>, Sales <dbl>,
#   Cash <dbl>, Leverage <dbl>, Employee <dbl>, ind_dummy <fct>
…
